…
homicide_summary = homicide_summary %>% 
  mutate(homicide_estimate = purrr::map2(num_unsolved, num_total, city_homicide)) %>% 
  unnest()
## Warning in prop.test(unsolve, total): Chi-squared approximation may be
## incorrect

unnest(homicide_summary)
## # A tibble: 51 x 6
##    city_state    num_unsolved num_total `estimated proport~ CI_low CI_high
##    <chr>                <int>     <int>               <dbl>  <dbl>   <dbl>
##  1 Albuquerque,~          146       378                0.39  0.34     0.44
##  2 Atlanta,GA             373       973                0.38  0.35     0.41
##  3 Baltimore,MD          1825      2827                0.65  0.63     0.66
##  4 Baton Rouge,~          196       424                0.46  0.41     0.51
##  5 Birmingham,AL          347       800                0.43  0.4      0.47
##  6 Boston,MA              310       614                0.5   0.46     0.55
##  7 Buffalo,NY             319       521                0.61  0.570    0.65
##  8 Charlotte,NC           206       687                0.3   0.27     0.34
##  9 Chicago,IL            4073      5535                0.74  0.72     0.75
## 10 Cincinnati,OH          309       694                0.45  0.41     0.48
## # ... with 41 more rows
```
…
